{
  "project_info": {
    "project_number": "9351281271",
    "project_id": "chit-63178",
    "storage_bucket": "chit-63178.appspot.com"
  },
  "client": [
    {
      "client_info": {
        "mobilesdk_app_id": "1:9351281271:android:b6992921555ccba5cc2472",
        "android_client_info": {
          "package_name": "com.easysolutions_iv.chit"
        }
      },
      "oauth_client": [
        {
          "client_id": "9351281271-333iao0basla73pn7dolpod7fe0gg0vs.apps.googleusercontent.com",
          "client_type": 1,
          "android_info": {
            "package_name": "com.easysolutions_iv.chit",
            "certificate_hash": "8e50680725eba67c875cd417bfa2ab4187c6d717"
          }
        },
        {
          "client_id": "9351281271-jkkedmfeg4lhqes88utjgob5mjgdv8a2.apps.googleusercontent.com",
          "client_type": 3
        }
      ],
      "api_key": [
        {
          "current_key": "AIzaSyAm5jlXPqZfCfem6C60NMVN4Txor2y3S4w"
        }
      ],
      "services": {
        "appinvite_service": {
          "other_platform_oauth_client": [
            {
              "client_id": "9351281271-jkkedmfeg4lhqes88utjgob5mjgdv8a2.apps.googleusercontent.com",
              "client_type": 3
            }
          ]
        }
      }
    }
  ],
  "configuration_version": "1"
}